{
    "type": "FeatureCollection",
    "name": "gaul_0_centroids",
    "crs": { "type": "name", "properties": { "name": "urn:ogc:def:crs:OGC:1.3:CRS84" } },
    "features": [
        { "type": "Feature", "properties": { "id": 28, "adm0_code": 89, "adm0_name": "Gabon", "value": 0 }, "geometry": { "type": "Point", "coordinates": [11.790406925974999, -0.624146097432651] } },
        { "type": "Feature", "properties": { "id": 29, "adm0_code": 76, "adm0_name": "Equatorial Guinea", "value": 0 }, "geometry": { "type": "Point", "coordinates": [10.332965324867139, 1.702611270116686] } },
        { "type": "Feature", "properties": { "id": 33, "adm0_code": 68, "adm0_name": "Democratic Republic of the Congo", "value": 0 }, "geometry": { "type": "Point", "coordinates": [23.65596973276687, -2.876843466349853] } },
        { "type": "Feature", "properties": { "id": 34, "adm0_code": 45, "adm0_name": "Cameroon", "value": 0 }, "geometry": { "type": "Point", "coordinates": [12.744754262341715, 5.691944491569816] } },
        { "type": "Feature", "properties": { "id": 35, "adm0_code": 49, "adm0_name": "Central African Republic", "value": 0 }, "geometry": { "type": "Point", "coordinates": [20.485540797600969, 6.575489796992097] } },
        { "type": "Feature", "properties": { "id": 36, "adm0_code": 8, "adm0_name": "Angola", "value": 0 }, "geometry": { "type": "Point", "coordinates": [17.548753996737201, -12.296463111897634] } },
        { "type": "Feature", "properties": { "id": 41, "adm0_code": 6, "adm0_name": "Sudan", "value": 0 }, "geometry": { "type": "Point", "coordinates": [29.958260517359989, 16.019748829578674] } },
        { "type": "Feature", "properties": { "id": 46, "adm0_code": 102, "adm0_name": "Abyei", "value": 0 }, "geometry": { "type": "Point", "coordinates": [28.398246995738312, 9.767661422571452] } },
        { "type": "Feature", "properties": { "id": 67, "adm0_code": 42, "adm0_name": "Burkina Faso", "value": 0 }, "geometry": { "type": "Point", "coordinates": [-1.746398905680524, 12.274383858456092] } },
        { "type": "Feature", "properties": { "id": 68, "adm0_code": 29, "adm0_name": "Benin", "value": 0 }, "geometry": { "type": "Point", "coordinates": [2.339850172775808, 9.660140534437298] } },
        { "type": "Feature", "properties": { "id": 58, "adm0_code": 159, "adm0_name": "Mauritania", "value": 0 }, "geometry": { "type": "Point", "coordinates": [-10.331989440374224, 20.259529765025352] } },
        { "type": "Feature", "properties": { "id": 48, "adm0_code": 235, "adm0_name": "Swaziland", "value": 0 }, "geometry": { "type": "Point", "coordinates": [31.501492314555041, -26.564708613893714] } },
        { "type": "Feature", "properties": { "id": 50, "adm0_code": 227, "adm0_name": "South Africa", "value": 0 }, "geometry": { "type": "Point", "coordinates": [25.093120614956764, -29.002876842330473] } },
        { "type": "Feature", "properties": { "id": 51, "adm0_code": 35, "adm0_name": "Botswana", "value": 0 }, "geometry": { "type": "Point", "coordinates": [23.813749549956128, -22.188052336084446] } },
        { "type": "Feature", "properties": { "id": 53, "adm0_code": 243, "adm0_name": "Togo", "value": 0 }, "geometry": { "type": "Point", "coordinates": [0.978635941873523, 8.530868913959193] } },
        { "type": "Feature", "properties": { "id": 54, "adm0_code": 221, "adm0_name": "Sierra Leone", "value": 0 }, "geometry": { "type": "Point", "coordinates": [-11.790260422043071, 8.559321645910734] } },
        { "type": "Feature", "properties": { "id": 55, "adm0_code": 217, "adm0_name": "Senegal", "value": 0 }, "geometry": { "type": "Point", "coordinates": [-14.460308983888602, 14.357509355893018] } },
        { "type": "Feature", "properties": { "id": 56, "adm0_code": 182, "adm0_name": "Nigeria", "value": 0 }, "geometry": { "type": "Point", "coordinates": [8.099271898091043, 9.592648766026795] } },
        { "type": "Feature", "properties": { "id": 57, "adm0_code": 181, "adm0_name": "Niger", "value": 0 }, "geometry": { "type": "Point", "coordinates": [9.400373348562891, 17.420493928168199] } },
        { "type": "Feature", "properties": { "id": 49, "adm0_code": 142, "adm0_name": "Lesotho", "value": 0 }, "geometry": { "type": "Point", "coordinates": [28.253622037700559, -29.580416719560432] } },
        { "type": "Feature", "properties": { "id": 14, "adm0_code": 257, "adm0_name": "United Republic of Tanzania", "value": 0 }, "geometry": { "type": "Point", "coordinates": [34.816242022034672, -6.263485288217732] } },
        { "type": "Feature", "properties": { "id": 15, "adm0_code": 253, "adm0_name": "Uganda", "value": 0 }, "geometry": { "type": "Point", "coordinates": [32.390957255791648, 1.279558149905394] } },
        { "type": "Feature", "properties": { "id": 16, "adm0_code": 271, "adm0_name": "Zimbabwe", "value": 0 }, "geometry": { "type": "Point", "coordinates": [29.868761296523424, -19.000279614386901] } },
        { "type": "Feature", "properties": { "id": 6, "adm0_code": 226, "adm0_name": "Somalia", "value": 0 }, "geometry": { "type": "Point", "coordinates": [45.867785627190671, 6.062919073269091] } },
        { "type": "Feature", "properties": { "id": 7, "adm0_code": 270, "adm0_name": "Zambia", "value": 0 }, "geometry": { "type": "Point", "coordinates": [27.793654380896626, -13.458587810071] } },
        { "type": "Feature", "properties": { "id": 8, "adm0_code": 133, "adm0_name": "Kenya", "value": 0 }, "geometry": { "type": "Point", "coordinates": [37.860205981447514, 0.533889827847758] } },
        { "type": "Feature", "properties": { "id": 9, "adm0_code": 150, "adm0_name": "Madagascar", "value": 0 }, "geometry": { "type": "Point", "coordinates": [46.70014587600523, -19.391393575547625] } },
        { "type": "Feature", "properties": { "id": 11, "adm0_code": 74, "adm0_name": "South Sudan", "value": 0 }, "geometry": { "type": "Point", "coordinates": [30.326229390630296, 7.290791802347059] } },
        { "type": "Feature", "properties": { "id": 31, "adm0_code": 214, "adm0_name": "Sao Tome and Principe", "value": 0 }, "geometry": { "type": "Point", "coordinates": [6.713754360028327, 0.432383920445537] } },
        { "type": "Feature", "properties": { "id": 32, "adm0_code": 59, "adm0_name": "Congo", "value": 0 }, "geometry": { "type": "Point", "coordinates": [15.241265629957129, -0.828802689987333] } },
        { "type": "Feature", "properties": { "id": 30, "adm0_code": 50, "adm0_name": "Chad", "value": 0 }, "geometry": { "type": "Point", "coordinates": [18.661350514734774, 15.340212532671217] } },
        { "type": "Feature", "properties": { "id": 1, "adm0_code": 170, "adm0_name": "Mozambique", "value": 0 }, "geometry": { "type": "Point", "coordinates": [35.553552378163459, -17.260971623534893] } },
        { "type": "Feature", "properties": { "id": 3, "adm0_code": 152, "adm0_name": "Malawi", "value": 0 }, "geometry": { "type": "Point", "coordinates": [34.30638000005569, -13.222189641066] } },
        { "type": "Feature", "properties": { "id": 4, "adm0_code": 161, "adm0_name": "Mayotte", "value": 0 }, "geometry": { "type": "Point", "coordinates": [45.148108312955067, -12.821152030692126] } },
        { "type": "Feature", "properties": { "id": 5, "adm0_code": 205, "adm0_name": "Rwanda", "value": 0 }, "geometry": { "type": "Point", "coordinates": [29.923150256317211, -1.999814091714485] } },
        { "type": "Feature", "properties": { "id": 21, "adm0_code": 79, "adm0_name": "Ethiopia", "value": 0 }, "geometry": { "type": "Point", "coordinates": [39.635845557968409, 8.630172658760378] } },
        { "type": "Feature", "properties": { "id": 22, "adm0_code": 77, "adm0_name": "Eritrea", "value": 0 }, "geometry": { "type": "Point", "coordinates": [38.840574828384554, 15.381905500175465] } },
        { "type": "Feature", "properties": { "id": 23, "adm0_code": 70, "adm0_name": "Djibouti", "value": 0 }, "geometry": { "type": "Point", "coordinates": [42.580356738225852, 11.734186020167938] } },
        { "type": "Feature", "properties": { "id": 24, "adm0_code": 58, "adm0_name": "Comoros", "value": 0 }, "geometry": { "type": "Point", "coordinates": [43.682550819995939, -11.891125852870074] } },
        { "type": "Feature", "properties": { "id": 27, "adm0_code": 43, "adm0_name": "Burundi", "value": 0 }, "geometry": { "type": "Point", "coordinates": [29.890484050144707, -3.366489059891962] } },
        { "type": "Feature", "properties": { "id": 47, "adm0_code": 172, "adm0_name": "Namibia", "value": 0 }, "geometry": { "type": "Point", "coordinates": [17.222162713090331, -22.137823994736607] } },
        { "type": "Feature", "properties": { "id": 59, "adm0_code": 155, "adm0_name": "Mali", "value": 0 }, "geometry": { "type": "Point", "coordinates": [-3.521625363666955, 17.355100783833496] } },
        { "type": "Feature", "properties": { "id": 60, "adm0_code": 144, "adm0_name": "Liberia", "value": 0 }, "geometry": { "type": "Point", "coordinates": [-9.309543921591262, 6.446994424775905] } },
        { "type": "Feature", "properties": { "id": 61, "adm0_code": 105, "adm0_name": "Guinea-Bissau", "value": 0 }, "geometry": { "type": "Point", "coordinates": [-14.905103587144076, 12.04008859417257] } },
        { "type": "Feature", "properties": { "id": 62, "adm0_code": 90, "adm0_name": "Gambia", "value": 0 }, "geometry": { "type": "Point", "coordinates": [-15.447353912079034, 13.448788868615969] } },
        { "type": "Feature", "properties": { "id": 63, "adm0_code": 106, "adm0_name": "Guinea", "value": 0 }, "geometry": { "type": "Point", "coordinates": [-10.914276866760467, 10.436194358612132] } },
        { "type": "Feature", "properties": { "id": 64, "adm0_code": 94, "adm0_name": "Ghana", "value": 0 }, "geometry": { "type": "Point", "coordinates": [-1.205987862400402, 7.966174541223961] } },
        { "type": "Feature", "properties": { "id": 65, "adm0_code": 47, "adm0_name": "Cape Verde", "value": 0 }, "geometry": { "type": "Point", "coordinates": [-23.980244187509768, 15.941232728192785] } },
        { "type": "Feature", "properties": { "id": 66, "adm0_code": 66, "adm0_name": "Côte d'Ivoire", "value": 0 }, "geometry": { "type": "Point", "coordinates": [-5.553689318745239, 7.625588576574547] } }
    ]
}